
     Program ACFDT v.6.0 (svn rev. 13079) starts on  4Oct2016 at 20:32:57 

     This program is part of the open-source Quantum ESPRESSO suite
     for quantum simulation of materials; please cite
         "P. Giannozzi et al., J. Phys.:Condens. Matter 21 395502 (2009);
          URL http://www.quantum-espresso.org", 
     in publications or presentations arising from this work. More details at
     http://www.quantum-espresso.org/quote

     Parallel version (MPI), running on     4 processors
     R & G space division:  proc/nbgrp/npool/nimage =       4

     Ultrasoft (Vanderbilt) Pseudopotentials

     Reading data from directory:
     /scratch/colonna/ACFDT/espresso-6.0/tempdir/Be-1.save

   Info: using nr1, nr2, nr3 values from input

   Info: using nr1, nr2, nr3 values from input

     IMPORTANT: XC functional enforced from input :
     Exchange-correlation      = SLA  PZ   NOGX NOGC ( 1  1  0  0 0 0)
     Any further DFT definition will be discarded
     Please, verify this is what you really want

               file Be.EXX-fhi.UPF: wavefunction(s)  3S renormalized
 
     Parallelization info
     --------------------
     sticks:   dense  smooth     PW     G-vecs:    dense   smooth      PW
     Min         627     627    155                23585    23585    2937
     Max         628     628    156                23586    23586    2940
     Sum        2509    2509    621                94341    94341   11753
 


SCF-EXXRPA CALCULATION 



       .... SCF-EXXRPA CALCULATION IS STARTING ....
 chi0_done F
 rpa_done F
 oep_done F
 stopped_first_iter F
 iter_save           0
 iter_oep           0
 One_body_term  0.000000000000000E+000
 oep_restart_flag F
 restart_from_scratch F
 line_search F
 poly_search F
 print_result T
 lambda_opt,  0.000000000000000E+000
 save_norm_1, and save_norm_2  0.000000000000000E+000  0.000000000000000E+000
 off_vrs_setup F


ITER #  1 : LOOP OVER EXXRPA POT



     Calculation of q =    0.0000000   0.0000000   0.0000000
 callexx : dft_is_hybrid =  F F

     Only exx_fraction is set to 1.d0
     XC functional still not changed
     Exchange-correlation      = SLA  PZ   NOGX NOGC ( 1  1  0  0 0 0)
     EXX-fraction              =        1.00
EXX: grid of k+q points same as grid of k-points
 callexx 2: dft_is_hybrid =  T F
     + Fock energy             =      -0.68076357 Ry =       -0.68076357 Ry 

 callexx 3: dft_is_hybrid =  T T
 callexx 4: dft_is_hybrid =  T F

     SCF steps #  0

     minimum_total energy      =      -0.68076357 Ry

     The total energy is the sum of the following terms:

     one-electron contribution =       0.00000000 Ry
     xc contribution           =      -0.68076357 Ry
     exact exchange energy     =      -0.68076357 Ry
     rpa correlation energy    =       0.00000000 Ry
 normalization of error density:           1           1  8.126381338046349E-004
 normalization of error density:           2           2  4.816218035959182E-006
 normalization of error density:           3           3  1.585551372763075E-006
 normalization of error density:           4           4  1.555569281850847E-006
 normalization of error density:           5           5  1.479846580205515E-006
 normalization of error density:           6           6  6.136049813921415E-007
 normalization of error density:           7           7  3.977593482025397E-007
 normalization of error density:           8           8  2.411029230592667E-007
 normalization of error density:           9           9  2.390945401231926E-007
 normalization of error density:          10          10  2.412327078741303E-007
 normalization of error density:          11          11  2.336843343597884E-007
 normalization of error density:          12          12  1.824183365948434E-007
 normalization of error density:          13          13  1.301487988572878E-007
 normalization of error density:          14          14  1.259357269134284E-007
 normalization of error density:          15          15  8.871470160767443E-008
 convergency is approach after          15 steps
 normalization of error density:  8.871470160767443E-008
 gradient_of_energy           1  1.717379309800836E-003

     XC functional enforced to be EXXRPA
     Exchange-correlation      = SLA  PZ   NOGX NOGC ( 0  0  0  0 0 0)
     EXX-fraction              =        1.00
     !!! Any further DFT definition will be discarded
     !!! Please, verify this is what you really want !


     Subspace diagonalization in iterative solution of the eigenvalue problem:
     a serial algorithm will be used


   Info: using nr1, nr2, nr3 values from input

   Info: using nr1, nr2, nr3 values from input
     Message from routine kpoint_grid:
     ATTENTION: skip check of k-points equivalence
 
     Parallelization info
     --------------------
     sticks:   dense  smooth     PW     G-vecs:    dense   smooth      PW
     Min         627     627    155                23585    23585    2937
     Max         628     628    156                23586    23586    2940
     Sum        2509    2509    621                94341    94341   11753
 


     bravais-lattice index     =            1
     lattice parameter (alat)  =      15.0000  a.u.
     unit-cell volume          =    3375.0000 (a.u.)^3
     number of atoms/cell      =            1
     number of atomic types    =            1
     number of electrons       =         2.00
     number of Kohn-Sham states=            4
     kinetic-energy cutoff     =      35.0000  Ry
     charge density cutoff     =     140.0000  Ry
     cutoff for Fock operator  =     140.0000  Ry
     Exchange-correlation      = SLA  PZ   NOGX NOGC ( 0  0  0  0 0 0)
     EXX-fraction              =        1.00

     celldm(1)=  15.000000  celldm(2)=   0.000000  celldm(3)=   0.000000
     celldm(4)=   0.000000  celldm(5)=   0.000000  celldm(6)=   0.000000

     crystal axes: (cart. coord. in units of alat)
               a(1) = (   1.000000   0.000000   0.000000 )  
               a(2) = (   0.000000   1.000000   0.000000 )  
               a(3) = (   0.000000   0.000000   1.000000 )  

     reciprocal axes: (cart. coord. in units 2 pi/alat)
               b(1) = (  1.000000  0.000000  0.000000 )  
               b(2) = (  0.000000  1.000000  0.000000 )  
               b(3) = (  0.000000  0.000000  1.000000 )  


     PseudoPot. # 1 for Be read from file:
     ../pseudo/Be.EXX-fhi.UPF
     MD5 check sum: 17e503e2df6aa395e6988bd959d3fa42
     Pseudo is Norm-conserving, Zval =  2.0
     Generated by new atomic code, or converted to UPF format
     Using radial grid of  445 points,  2 beta functions with: 
                l(1) =   0
                l(2) =   1

     atomic species   valence    mass     pseudopotential
        Be             2.00     9.01218     Be( 1.00)

     No symmetry found



   Cartesian axes

     site n.     atom                  positions (alat units)
         1           Be  tau(   1) = (   0.0000000   0.0000000   0.0000000  )

     number of k points=     1
                       cart. coord. in units 2pi/alat
        k(    1) = (   0.0000000   0.0000000   0.0000000), wk =   2.0000000

     Dense  grid:    94341 G-vectors     FFT dimensions: (  60,  60,  60)

     Estimated max dynamical RAM per process >      30.76Mb

     Estimated total allocated dynamical RAM >     123.05Mb

     The potential is recalculated from file :
     /scratch/colonna/ACFDT/espresso-6.0/tempdir/Be-1.save/charge-density.dat

     Starting wfc from file

     Band Structure Calculation
     Davidson diagonalization with overlap

     ethr =  2.50E-13,  avg # of iterations = 15.0

     The total energy is the sum of the following terms:

     sum of ks eigenvalues     =      -0.80435554 Ry
     sum of local potentials   =      -0.32987858 Ry
     hartree contribution      =       0.64630662 Ry
     ewald contribution        =      -0.75661271 Ry
     lda (pbe) xc contribution =       0.00000000 Ry

     Etot with lda(pbe) xc     =      -1.24454020 Ry
     Etot with lda without xc  =      -1.24454020 Ry

     total cpu time spent up to now is        0.1 secs

     End of band structure calculation

          k = 0.0000 0.0000 0.0000 ( 11753 PWs)   bands (ev):

    -5.4719  -1.8522  -1.8522  -1.8522

     highest occupied, lowest unoccupied level (ev):    -5.4719   -1.8522

     Writing output data file Be-1.save


ITER #  2 : LOOP OVER EXXRPA POT



     Calculation of q =    0.0000000   0.0000000   0.0000000
 callexx : dft_is_hybrid =  T F

     Only exx_fraction is set to 1.d0
     XC functional still not changed
     Exchange-correlation      = SLA  PZ   NOGX NOGC ( 0  0  0  0 0 0)
     EXX-fraction              =        1.00
EXX: grid of k+q points same as grid of k-points
 callexx 2: dft_is_hybrid =  T F
     + Fock energy             =      -0.68063025 Ry =       -0.68063025 Ry 

 callexx 3: dft_is_hybrid =  T T
 callexx 4: dft_is_hybrid =  T F

     SCF steps #  1

     minimum_total energy      =      -1.92517046 Ry

     The total energy is the sum of the following terms:

     one-electron contribution =      -1.24454020 Ry
     xc contribution           =      -0.68063025 Ry
     exact exchange energy     =      -0.68063025 Ry
     rpa correlation energy    =       0.00000000 Ry
 normalization of error density:           1           1  1.312506732613795E-006
 normalization of error density:           2           2  1.873692526618947E-007
 normalization of error density:           3           3  1.641158466209448E-007
 normalization of error density:           4           4  8.066659364563101E-008
 convergency is approach after           4 steps
 normalization of error density:  8.066659364563101E-008
 gradient_of_energy           2  8.439214410842625E-004

     XC functional enforced to be EXXRPA
     Exchange-correlation      = SLA  PZ   NOGX NOGC ( 0  0  0  0 0 0)
     EXX-fraction              =        1.00
     !!! Any further DFT definition will be discarded
     !!! Please, verify this is what you really want !


   Info: using nr1, nr2, nr3 values from input

   Info: using nr1, nr2, nr3 values from input
     Message from routine kpoint_grid:
     ATTENTION: skip check of k-points equivalence
 
     Parallelization info
     --------------------
     sticks:   dense  smooth     PW     G-vecs:    dense   smooth      PW
     Min         627     627    155                23585    23585    2937
     Max         628     628    156                23586    23586    2940
     Sum        2509    2509    621                94341    94341   11753
 


     bravais-lattice index     =            1
     lattice parameter (alat)  =      15.0000  a.u.
     unit-cell volume          =    3375.0000 (a.u.)^3
     number of atoms/cell      =            1
     number of atomic types    =            1
     number of electrons       =         2.00
     number of Kohn-Sham states=            4
     kinetic-energy cutoff     =      35.0000  Ry
     charge density cutoff     =     140.0000  Ry
     cutoff for Fock operator  =     140.0000  Ry
     Exchange-correlation      = SLA  PZ   NOGX NOGC ( 0  0  0  0 0 0)
     EXX-fraction              =        1.00

     celldm(1)=  15.000000  celldm(2)=   0.000000  celldm(3)=   0.000000
     celldm(4)=   0.000000  celldm(5)=   0.000000  celldm(6)=   0.000000

     crystal axes: (cart. coord. in units of alat)
               a(1) = (   1.000000   0.000000   0.000000 )  
               a(2) = (   0.000000   1.000000   0.000000 )  
               a(3) = (   0.000000   0.000000   1.000000 )  

     reciprocal axes: (cart. coord. in units 2 pi/alat)
               b(1) = (  1.000000  0.000000  0.000000 )  
               b(2) = (  0.000000  1.000000  0.000000 )  
               b(3) = (  0.000000  0.000000  1.000000 )  


     PseudoPot. # 1 for Be read from file:
     ../pseudo/Be.EXX-fhi.UPF
     MD5 check sum: 17e503e2df6aa395e6988bd959d3fa42
     Pseudo is Norm-conserving, Zval =  2.0
     Generated by new atomic code, or converted to UPF format
     Using radial grid of  445 points,  2 beta functions with: 
                l(1) =   0
                l(2) =   1

     atomic species   valence    mass     pseudopotential
        Be             2.00     9.01218     Be( 1.00)

     No symmetry found



   Cartesian axes

     site n.     atom                  positions (alat units)
         1           Be  tau(   1) = (   0.0000000   0.0000000   0.0000000  )

     number of k points=     1
                       cart. coord. in units 2pi/alat
        k(    1) = (   0.0000000   0.0000000   0.0000000), wk =   2.0000000

     Dense  grid:    94341 G-vectors     FFT dimensions: (  60,  60,  60)

     Estimated max dynamical RAM per process >      30.76Mb

     Estimated total allocated dynamical RAM >     123.05Mb

     The potential is recalculated from file :
     /scratch/colonna/ACFDT/espresso-6.0/tempdir/Be-1.save/charge-density.dat

     Starting wfc from file

     Band Structure Calculation
     Davidson diagonalization with overlap

     ethr =  2.50E-13,  avg # of iterations = 11.0

     The total energy is the sum of the following terms:

     sum of ks eigenvalues     =      -0.81360398 Ry
     sum of local potentials   =      -0.32061870 Ry
     hartree contribution      =       0.64612248 Ry
     ewald contribution        =      -0.75661271 Ry
     lda (pbe) xc contribution =       0.00000000 Ry

     Etot with lda(pbe) xc     =      -1.24471292 Ry
     Etot with lda without xc  =      -1.24471292 Ry

     total cpu time spent up to now is        0.3 secs

     End of band structure calculation

          k = 0.0000 0.0000 0.0000 ( 11753 PWs)   bands (ev):

    -5.5348  -1.9247  -1.9247  -1.9247

     highest occupied, lowest unoccupied level (ev):    -5.5348   -1.9247

     Writing output data file Be-1.save
 oep convergency:   1.708258440434923E-003 F


ITER #  3 : LOOP OVER EXXRPA POT



     Calculation of q =    0.0000000   0.0000000   0.0000000
 callexx : dft_is_hybrid =  T F

     Only exx_fraction is set to 1.d0
     XC functional still not changed
     Exchange-correlation      = SLA  PZ   NOGX NOGC ( 0  0  0  0 0 0)
     EXX-fraction              =        1.00
EXX: grid of k+q points same as grid of k-points
 callexx 2: dft_is_hybrid =  T F
     + Fock energy             =      -0.68051735 Ry =       -0.68051735 Ry 

 callexx 3: dft_is_hybrid =  T T
 callexx 4: dft_is_hybrid =  T F

     SCF steps #  2

     minimum_total energy      =      -1.92523027 Ry

     The total energy is the sum of the following terms:

     one-electron contribution =      -1.24471292 Ry
     xc contribution           =      -0.68051735 Ry
     exact exchange energy     =      -0.68051735 Ry
     rpa correlation energy    =       0.00000000 Ry
 normalization of error density:           1           1  5.686497016213642E-007
 normalization of error density:           2           2  1.520280707487092E-007
 normalization of error density:           3           3  9.949424628374464E-008
 convergency is approach after           3 steps
 normalization of error density:  9.949424628374464E-008
 gradient_of_energy           3  4.091541773768869E-004

     XC functional enforced to be EXXRPA
     Exchange-correlation      = SLA  PZ   NOGX NOGC ( 0  0  0  0 0 0)
     EXX-fraction              =        1.00
     !!! Any further DFT definition will be discarded
     !!! Please, verify this is what you really want !


   Info: using nr1, nr2, nr3 values from input

   Info: using nr1, nr2, nr3 values from input
     Message from routine kpoint_grid:
     ATTENTION: skip check of k-points equivalence
 
     Parallelization info
     --------------------
     sticks:   dense  smooth     PW     G-vecs:    dense   smooth      PW
     Min         627     627    155                23585    23585    2937
     Max         628     628    156                23586    23586    2940
     Sum        2509    2509    621                94341    94341   11753
 


     bravais-lattice index     =            1
     lattice parameter (alat)  =      15.0000  a.u.
     unit-cell volume          =    3375.0000 (a.u.)^3
     number of atoms/cell      =            1
     number of atomic types    =            1
     number of electrons       =         2.00
     number of Kohn-Sham states=            4
     kinetic-energy cutoff     =      35.0000  Ry
     charge density cutoff     =     140.0000  Ry
     cutoff for Fock operator  =     140.0000  Ry
     Exchange-correlation      = SLA  PZ   NOGX NOGC ( 0  0  0  0 0 0)
     EXX-fraction              =        1.00

     celldm(1)=  15.000000  celldm(2)=   0.000000  celldm(3)=   0.000000
     celldm(4)=   0.000000  celldm(5)=   0.000000  celldm(6)=   0.000000

     crystal axes: (cart. coord. in units of alat)
               a(1) = (   1.000000   0.000000   0.000000 )  
               a(2) = (   0.000000   1.000000   0.000000 )  
               a(3) = (   0.000000   0.000000   1.000000 )  

     reciprocal axes: (cart. coord. in units 2 pi/alat)
               b(1) = (  1.000000  0.000000  0.000000 )  
               b(2) = (  0.000000  1.000000  0.000000 )  
               b(3) = (  0.000000  0.000000  1.000000 )  


     PseudoPot. # 1 for Be read from file:
     ../pseudo/Be.EXX-fhi.UPF
     MD5 check sum: 17e503e2df6aa395e6988bd959d3fa42
     Pseudo is Norm-conserving, Zval =  2.0
     Generated by new atomic code, or converted to UPF format
     Using radial grid of  445 points,  2 beta functions with: 
                l(1) =   0
                l(2) =   1

     atomic species   valence    mass     pseudopotential
        Be             2.00     9.01218     Be( 1.00)

     No symmetry found



   Cartesian axes

     site n.     atom                  positions (alat units)
         1           Be  tau(   1) = (   0.0000000   0.0000000   0.0000000  )

     number of k points=     1
                       cart. coord. in units 2pi/alat
        k(    1) = (   0.0000000   0.0000000   0.0000000), wk =   2.0000000

     Dense  grid:    94341 G-vectors     FFT dimensions: (  60,  60,  60)

     Estimated max dynamical RAM per process >      30.76Mb

     Estimated total allocated dynamical RAM >     123.05Mb

     The potential is recalculated from file :
     /scratch/colonna/ACFDT/espresso-6.0/tempdir/Be-1.save/charge-density.dat

     Starting wfc from file

     Band Structure Calculation
     Davidson diagonalization with overlap

     ethr =  2.50E-13,  avg # of iterations =  9.0

     The total energy is the sum of the following terms:

     sum of ks eigenvalues     =      -0.81802549 Ry
     sum of local potentials   =      -0.31615630 Ry
     hartree contribution      =       0.64598948 Ry
     ewald contribution        =      -0.75661271 Ry
     lda (pbe) xc contribution =       0.00000000 Ry

     Etot with lda(pbe) xc     =      -1.24480502 Ry
     Etot with lda without xc  =      -1.24480502 Ry

     total cpu time spent up to now is        0.4 secs

     End of band structure calculation

          k = 0.0000 0.0000 0.0000 ( 11753 PWs)   bands (ev):

    -5.5649  -1.9595  -1.9595  -1.9595

     highest occupied, lowest unoccupied level (ev):    -5.5649   -1.9595

     Writing output data file Be-1.save
 oep convergency:   2.688141885174203E-004 F


ITER #  4 : LOOP OVER EXXRPA POT



     Calculation of q =    0.0000000   0.0000000   0.0000000
 callexx : dft_is_hybrid =  T F

     Only exx_fraction is set to 1.d0
     XC functional still not changed
     Exchange-correlation      = SLA  PZ   NOGX NOGC ( 0  0  0  0 0 0)
     EXX-fraction              =        1.00
EXX: grid of k+q points same as grid of k-points
 callexx 2: dft_is_hybrid =  T F
     + Fock energy             =      -0.68043937 Ry =       -0.68043937 Ry 

 callexx 3: dft_is_hybrid =  T T
 callexx 4: dft_is_hybrid =  T F

     SCF steps #  3

     minimum_total energy      =      -1.92524439 Ry

     The total energy is the sum of the following terms:

     one-electron contribution =      -1.24480502 Ry
     xc contribution           =      -0.68043937 Ry
     exact exchange energy     =      -0.68043937 Ry
     rpa correlation energy    =       0.00000000 Ry
 normalization of error density:           1           1  2.734271191870581E-007
 normalization of error density:           2           2  1.083648404824793E-007
 normalization of error density:           3           3  1.023765257538895E-007
 normalization of error density:           4           4  7.702779966396653E-008
 convergency is approach after           4 steps
 normalization of error density:  7.702779966396653E-008
 gradient_of_energy           4  1.985468970432944E-004

     XC functional enforced to be EXXRPA
     Exchange-correlation      = SLA  PZ   NOGX NOGC ( 0  0  0  0 0 0)
     EXX-fraction              =        1.00
     !!! Any further DFT definition will be discarded
     !!! Please, verify this is what you really want !


   Info: using nr1, nr2, nr3 values from input

   Info: using nr1, nr2, nr3 values from input
     Message from routine kpoint_grid:
     ATTENTION: skip check of k-points equivalence
 
     Parallelization info
     --------------------
     sticks:   dense  smooth     PW     G-vecs:    dense   smooth      PW
     Min         627     627    155                23585    23585    2937
     Max         628     628    156                23586    23586    2940
     Sum        2509    2509    621                94341    94341   11753
 


     bravais-lattice index     =            1
     lattice parameter (alat)  =      15.0000  a.u.
     unit-cell volume          =    3375.0000 (a.u.)^3
     number of atoms/cell      =            1
     number of atomic types    =            1
     number of electrons       =         2.00
     number of Kohn-Sham states=            4
     kinetic-energy cutoff     =      35.0000  Ry
     charge density cutoff     =     140.0000  Ry
     cutoff for Fock operator  =     140.0000  Ry
     Exchange-correlation      = SLA  PZ   NOGX NOGC ( 0  0  0  0 0 0)
     EXX-fraction              =        1.00

     celldm(1)=  15.000000  celldm(2)=   0.000000  celldm(3)=   0.000000
     celldm(4)=   0.000000  celldm(5)=   0.000000  celldm(6)=   0.000000

     crystal axes: (cart. coord. in units of alat)
               a(1) = (   1.000000   0.000000   0.000000 )  
               a(2) = (   0.000000   1.000000   0.000000 )  
               a(3) = (   0.000000   0.000000   1.000000 )  

     reciprocal axes: (cart. coord. in units 2 pi/alat)
               b(1) = (  1.000000  0.000000  0.000000 )  
               b(2) = (  0.000000  1.000000  0.000000 )  
               b(3) = (  0.000000  0.000000  1.000000 )  


     PseudoPot. # 1 for Be read from file:
     ../pseudo/Be.EXX-fhi.UPF
     MD5 check sum: 17e503e2df6aa395e6988bd959d3fa42
     Pseudo is Norm-conserving, Zval =  2.0
     Generated by new atomic code, or converted to UPF format
     Using radial grid of  445 points,  2 beta functions with: 
                l(1) =   0
                l(2) =   1

     atomic species   valence    mass     pseudopotential
        Be             2.00     9.01218     Be( 1.00)

     No symmetry found



   Cartesian axes

     site n.     atom                  positions (alat units)
         1           Be  tau(   1) = (   0.0000000   0.0000000   0.0000000  )

     number of k points=     1
                       cart. coord. in units 2pi/alat
        k(    1) = (   0.0000000   0.0000000   0.0000000), wk =   2.0000000

     Dense  grid:    94341 G-vectors     FFT dimensions: (  60,  60,  60)

     Estimated max dynamical RAM per process >      30.76Mb

     Estimated total allocated dynamical RAM >     123.05Mb

     The potential is recalculated from file :
     /scratch/colonna/ACFDT/espresso-6.0/tempdir/Be-1.save/charge-density.dat

     Starting wfc from file

     Band Structure Calculation
     Davidson diagonalization with overlap

     ethr =  2.50E-13,  avg # of iterations =  9.0

     The total energy is the sum of the following terms:

     sum of ks eigenvalues     =      -0.82025647 Ry
     sum of local potentials   =      -0.31389442 Ry
     hartree contribution      =       0.64590919 Ry
     ewald contribution        =      -0.75661271 Ry
     lda (pbe) xc contribution =       0.00000000 Ry

     Etot with lda(pbe) xc     =      -1.24485442 Ry
     Etot with lda without xc  =      -1.24485442 Ry

     total cpu time spent up to now is        0.5 secs

     End of band structure calculation

          k = 0.0000 0.0000 0.0000 ( 11753 PWs)   bands (ev):

    -5.5801  -1.9771  -1.9770  -1.9770

     highest occupied, lowest unoccupied level (ev):    -5.5801   -1.9771

     Writing output data file Be-1.save
 oep convergency:   1.308190489050039E-004 F


ITER #  5 : LOOP OVER EXXRPA POT



     Calculation of q =    0.0000000   0.0000000   0.0000000
 callexx : dft_is_hybrid =  T F

     Only exx_fraction is set to 1.d0
     XC functional still not changed
     Exchange-correlation      = SLA  PZ   NOGX NOGC ( 0  0  0  0 0 0)
     EXX-fraction              =        1.00
EXX: grid of k+q points same as grid of k-points
 callexx 2: dft_is_hybrid =  T F
     + Fock energy             =      -0.68039336 Ry =       -0.68039336 Ry 

 callexx 3: dft_is_hybrid =  T T
 callexx 4: dft_is_hybrid =  T F

     SCF steps #  4

     minimum_total energy      =      -1.92524777 Ry

     The total energy is the sum of the following terms:

     one-electron contribution =      -1.24485442 Ry
     xc contribution           =      -0.68039336 Ry
     exact exchange energy     =      -0.68039336 Ry
     rpa correlation energy    =       0.00000000 Ry
 normalization of error density:           1           1  1.270402084393686E-007
 normalization of error density:           2           2  7.759799495668244E-008
 convergency is approach after           2 steps
 normalization of error density:  7.759799495668244E-008
 gradient_of_energy           5  9.580465445052569E-005

     XC functional enforced to be EXXRPA
     Exchange-correlation      = SLA  PZ   NOGX NOGC ( 0  0  0  0 0 0)
     EXX-fraction              =        1.00
     !!! Any further DFT definition will be discarded
     !!! Please, verify this is what you really want !


   Info: using nr1, nr2, nr3 values from input

   Info: using nr1, nr2, nr3 values from input
     Message from routine kpoint_grid:
     ATTENTION: skip check of k-points equivalence
 
     Parallelization info
     --------------------
     sticks:   dense  smooth     PW     G-vecs:    dense   smooth      PW
     Min         627     627    155                23585    23585    2937
     Max         628     628    156                23586    23586    2940
     Sum        2509    2509    621                94341    94341   11753
 


     bravais-lattice index     =            1
     lattice parameter (alat)  =      15.0000  a.u.
     unit-cell volume          =    3375.0000 (a.u.)^3
     number of atoms/cell      =            1
     number of atomic types    =            1
     number of electrons       =         2.00
     number of Kohn-Sham states=            4
     kinetic-energy cutoff     =      35.0000  Ry
     charge density cutoff     =     140.0000  Ry
     cutoff for Fock operator  =     140.0000  Ry
     Exchange-correlation      = SLA  PZ   NOGX NOGC ( 0  0  0  0 0 0)
     EXX-fraction              =        1.00

     celldm(1)=  15.000000  celldm(2)=   0.000000  celldm(3)=   0.000000
     celldm(4)=   0.000000  celldm(5)=   0.000000  celldm(6)=   0.000000

     crystal axes: (cart. coord. in units of alat)
               a(1) = (   1.000000   0.000000   0.000000 )  
               a(2) = (   0.000000   1.000000   0.000000 )  
               a(3) = (   0.000000   0.000000   1.000000 )  

     reciprocal axes: (cart. coord. in units 2 pi/alat)
               b(1) = (  1.000000  0.000000  0.000000 )  
               b(2) = (  0.000000  1.000000  0.000000 )  
               b(3) = (  0.000000  0.000000  1.000000 )  


     PseudoPot. # 1 for Be read from file:
     ../pseudo/Be.EXX-fhi.UPF
     MD5 check sum: 17e503e2df6aa395e6988bd959d3fa42
     Pseudo is Norm-conserving, Zval =  2.0
     Generated by new atomic code, or converted to UPF format
     Using radial grid of  445 points,  2 beta functions with: 
                l(1) =   0
                l(2) =   1

     atomic species   valence    mass     pseudopotential
        Be             2.00     9.01218     Be( 1.00)

     No symmetry found



   Cartesian axes

     site n.     atom                  positions (alat units)
         1           Be  tau(   1) = (   0.0000000   0.0000000   0.0000000  )

     number of k points=     1
                       cart. coord. in units 2pi/alat
        k(    1) = (   0.0000000   0.0000000   0.0000000), wk =   2.0000000

     Dense  grid:    94341 G-vectors     FFT dimensions: (  60,  60,  60)

     Estimated max dynamical RAM per process >      30.76Mb

     Estimated total allocated dynamical RAM >     123.05Mb

     The potential is recalculated from file :
     /scratch/colonna/ACFDT/espresso-6.0/tempdir/Be-1.save/charge-density.dat

     Starting wfc from file

     Band Structure Calculation
     Davidson diagonalization with overlap

     ethr =  2.50E-13,  avg # of iterations =  8.0

     The total energy is the sum of the following terms:

     sum of ks eigenvalues     =      -0.82135770 Ry
     sum of local potentials   =      -0.31277430 Ry
     hartree contribution      =       0.64586378 Ry
     ewald contribution        =      -0.75661271 Ry
     lda (pbe) xc contribution =       0.00000000 Ry

     Etot with lda(pbe) xc     =      -1.24488092 Ry
     Etot with lda without xc  =      -1.24488092 Ry

     total cpu time spent up to now is        0.7 secs

     End of band structure calculation

          k = 0.0000 0.0000 0.0000 ( 11753 PWs)   bands (ev):

    -5.5876  -1.9857  -1.9857  -1.9857

     highest occupied, lowest unoccupied level (ev):    -5.5876   -1.9857

     Writing output data file Be-1.save
 oep convergency:   6.261311483453738E-005 F


ITER #  6 : LOOP OVER EXXRPA POT



     Calculation of q =    0.0000000   0.0000000   0.0000000
 callexx : dft_is_hybrid =  T F

     Only exx_fraction is set to 1.d0
     XC functional still not changed
     Exchange-correlation      = SLA  PZ   NOGX NOGC ( 0  0  0  0 0 0)
     EXX-fraction              =        1.00
EXX: grid of k+q points same as grid of k-points
 callexx 2: dft_is_hybrid =  T F
     + Fock energy             =      -0.68036765 Ry =       -0.68036765 Ry 

 callexx 3: dft_is_hybrid =  T T
 callexx 4: dft_is_hybrid =  T F

     SCF steps #  5

     minimum_total energy      =      -1.92524857 Ry

     The total energy is the sum of the following terms:

     one-electron contribution =      -1.24488092 Ry
     xc contribution           =      -0.68036765 Ry
     exact exchange energy     =      -0.68036765 Ry
     rpa correlation energy    =       0.00000000 Ry
 normalization of error density:           1           1  9.420096278574831E-008
 convergency is approach after           1 steps
 normalization of error density:  9.420096278574831E-008
 gradient_of_energy           6  4.663147468673409E-005

     XC functional enforced to be EXXRPA
     Exchange-correlation      = SLA  PZ   NOGX NOGC ( 0  0  0  0 0 0)
     EXX-fraction              =        1.00
     !!! Any further DFT definition will be discarded
     !!! Please, verify this is what you really want !


   Info: using nr1, nr2, nr3 values from input

   Info: using nr1, nr2, nr3 values from input
     Message from routine kpoint_grid:
     ATTENTION: skip check of k-points equivalence
 
     Parallelization info
     --------------------
     sticks:   dense  smooth     PW     G-vecs:    dense   smooth      PW
     Min         627     627    155                23585    23585    2937
     Max         628     628    156                23586    23586    2940
     Sum        2509    2509    621                94341    94341   11753
 


     bravais-lattice index     =            1
     lattice parameter (alat)  =      15.0000  a.u.
     unit-cell volume          =    3375.0000 (a.u.)^3
     number of atoms/cell      =            1
     number of atomic types    =            1
     number of electrons       =         2.00
     number of Kohn-Sham states=            4
     kinetic-energy cutoff     =      35.0000  Ry
     charge density cutoff     =     140.0000  Ry
     cutoff for Fock operator  =     140.0000  Ry
     Exchange-correlation      = SLA  PZ   NOGX NOGC ( 0  0  0  0 0 0)
     EXX-fraction              =        1.00

     celldm(1)=  15.000000  celldm(2)=   0.000000  celldm(3)=   0.000000
     celldm(4)=   0.000000  celldm(5)=   0.000000  celldm(6)=   0.000000

     crystal axes: (cart. coord. in units of alat)
               a(1) = (   1.000000   0.000000   0.000000 )  
               a(2) = (   0.000000   1.000000   0.000000 )  
               a(3) = (   0.000000   0.000000   1.000000 )  

     reciprocal axes: (cart. coord. in units 2 pi/alat)
               b(1) = (  1.000000  0.000000  0.000000 )  
               b(2) = (  0.000000  1.000000  0.000000 )  
               b(3) = (  0.000000  0.000000  1.000000 )  


     PseudoPot. # 1 for Be read from file:
     ../pseudo/Be.EXX-fhi.UPF
     MD5 check sum: 17e503e2df6aa395e6988bd959d3fa42
     Pseudo is Norm-conserving, Zval =  2.0
     Generated by new atomic code, or converted to UPF format
     Using radial grid of  445 points,  2 beta functions with: 
                l(1) =   0
                l(2) =   1

     atomic species   valence    mass     pseudopotential
        Be             2.00     9.01218     Be( 1.00)

     No symmetry found



   Cartesian axes

     site n.     atom                  positions (alat units)
         1           Be  tau(   1) = (   0.0000000   0.0000000   0.0000000  )

     number of k points=     1
                       cart. coord. in units 2pi/alat
        k(    1) = (   0.0000000   0.0000000   0.0000000), wk =   2.0000000

     Dense  grid:    94341 G-vectors     FFT dimensions: (  60,  60,  60)

     Estimated max dynamical RAM per process >      30.76Mb

     Estimated total allocated dynamical RAM >     123.05Mb

     The potential is recalculated from file :
     /scratch/colonna/ACFDT/espresso-6.0/tempdir/Be-1.save/charge-density.dat

     Starting wfc from file

     Band Structure Calculation
     Davidson diagonalization with overlap

     ethr =  2.50E-13,  avg # of iterations =  7.0

     The total energy is the sum of the following terms:

     sum of ks eigenvalues     =      -0.82193119 Ry
     sum of local potentials   =      -0.31219000 Ry
     hartree contribution      =       0.64583889 Ry
     ewald contribution        =      -0.75661271 Ry
     lda (pbe) xc contribution =       0.00000000 Ry

     Etot with lda(pbe) xc     =      -1.24489502 Ry
     Etot with lda without xc  =      -1.24489502 Ry

     total cpu time spent up to now is        0.8 secs

     End of band structure calculation

          k = 0.0000 0.0000 0.0000 ( 11753 PWs)   bands (ev):

    -5.5915  -1.9902  -1.9901  -1.9901

     highest occupied, lowest unoccupied level (ev):    -5.5915   -1.9902

     Writing output data file Be-1.save
 oep convergency:   2.908024363405481E-005 F


ITER #  7 : LOOP OVER EXXRPA POT



     Calculation of q =    0.0000000   0.0000000   0.0000000
 callexx : dft_is_hybrid =  T F

     Only exx_fraction is set to 1.d0
     XC functional still not changed
     Exchange-correlation      = SLA  PZ   NOGX NOGC ( 0  0  0  0 0 0)
     EXX-fraction              =        1.00
EXX: grid of k+q points same as grid of k-points
 callexx 2: dft_is_hybrid =  T F
     + Fock energy             =      -0.68035375 Ry =       -0.68035375 Ry 

 callexx 3: dft_is_hybrid =  T T
 callexx 4: dft_is_hybrid =  T F

     SCF steps #  6

     minimum_total energy      =      -1.92524876 Ry

     The total energy is the sum of the following terms:

     one-electron contribution =      -1.24489502 Ry
     xc contribution           =      -0.68035375 Ry
     exact exchange energy     =      -0.68035375 Ry
     rpa correlation energy    =       0.00000000 Ry
 normalization of error density:           1           1  1.056088626709270E-007
 normalization of error density:           2           2  7.869306785928734E-008
 convergency is approach after           2 steps
 normalization of error density:  7.869306785928734E-008
 gradient_of_energy           7  2.388010207483537E-005

     XC functional enforced to be EXXRPA
     Exchange-correlation      = SLA  PZ   NOGX NOGC ( 0  0  0  0 0 0)
     EXX-fraction              =        1.00
     !!! Any further DFT definition will be discarded
     !!! Please, verify this is what you really want !


   Info: using nr1, nr2, nr3 values from input

   Info: using nr1, nr2, nr3 values from input
     Message from routine kpoint_grid:
     ATTENTION: skip check of k-points equivalence
 
     Parallelization info
     --------------------
     sticks:   dense  smooth     PW     G-vecs:    dense   smooth      PW
     Min         627     627    155                23585    23585    2937
     Max         628     628    156                23586    23586    2940
     Sum        2509    2509    621                94341    94341   11753
 


     bravais-lattice index     =            1
     lattice parameter (alat)  =      15.0000  a.u.
     unit-cell volume          =    3375.0000 (a.u.)^3
     number of atoms/cell      =            1
     number of atomic types    =            1
     number of electrons       =         2.00
     number of Kohn-Sham states=            4
     kinetic-energy cutoff     =      35.0000  Ry
     charge density cutoff     =     140.0000  Ry
     cutoff for Fock operator  =     140.0000  Ry
     Exchange-correlation      = SLA  PZ   NOGX NOGC ( 0  0  0  0 0 0)
     EXX-fraction              =        1.00

     celldm(1)=  15.000000  celldm(2)=   0.000000  celldm(3)=   0.000000
     celldm(4)=   0.000000  celldm(5)=   0.000000  celldm(6)=   0.000000

     crystal axes: (cart. coord. in units of alat)
               a(1) = (   1.000000   0.000000   0.000000 )  
               a(2) = (   0.000000   1.000000   0.000000 )  
               a(3) = (   0.000000   0.000000   1.000000 )  

     reciprocal axes: (cart. coord. in units 2 pi/alat)
               b(1) = (  1.000000  0.000000  0.000000 )  
               b(2) = (  0.000000  1.000000  0.000000 )  
               b(3) = (  0.000000  0.000000  1.000000 )  


     PseudoPot. # 1 for Be read from file:
     ../pseudo/Be.EXX-fhi.UPF
     MD5 check sum: 17e503e2df6aa395e6988bd959d3fa42
     Pseudo is Norm-conserving, Zval =  2.0
     Generated by new atomic code, or converted to UPF format
     Using radial grid of  445 points,  2 beta functions with: 
                l(1) =   0
                l(2) =   1

     atomic species   valence    mass     pseudopotential
        Be             2.00     9.01218     Be( 1.00)

     No symmetry found



   Cartesian axes

     site n.     atom                  positions (alat units)
         1           Be  tau(   1) = (   0.0000000   0.0000000   0.0000000  )

     number of k points=     1
                       cart. coord. in units 2pi/alat
        k(    1) = (   0.0000000   0.0000000   0.0000000), wk =   2.0000000

     Dense  grid:    94341 G-vectors     FFT dimensions: (  60,  60,  60)

     Estimated max dynamical RAM per process >      30.76Mb

     Estimated total allocated dynamical RAM >     123.05Mb

     The potential is recalculated from file :
     /scratch/colonna/ACFDT/espresso-6.0/tempdir/Be-1.save/charge-density.dat

     Starting wfc from file

     Band Structure Calculation
     Davidson diagonalization with overlap

     ethr =  2.50E-13,  avg # of iterations =  7.0

     The total energy is the sum of the following terms:

     sum of ks eigenvalues     =      -0.82220098 Ry
     sum of local potentials   =      -0.31191517 Ry
     hartree contribution      =       0.64582722 Ry
     ewald contribution        =      -0.75661271 Ry
     lda (pbe) xc contribution =       0.00000000 Ry

     Etot with lda(pbe) xc     =      -1.24490165 Ry
     Etot with lda without xc  =      -1.24490165 Ry

     total cpu time spent up to now is        0.9 secs

     End of band structure calculation

          k = 0.0000 0.0000 0.0000 ( 11753 PWs)   bands (ev):

    -5.5933  -1.9923  -1.9923  -1.9922

     highest occupied, lowest unoccupied level (ev):    -5.5933   -1.9923

     Writing output data file Be-1.save
 oep convergency:   1.503192949750587E-005 F


ITER #  8 : LOOP OVER EXXRPA POT



     Calculation of q =    0.0000000   0.0000000   0.0000000
 callexx : dft_is_hybrid =  T F

     Only exx_fraction is set to 1.d0
     XC functional still not changed
     Exchange-correlation      = SLA  PZ   NOGX NOGC ( 0  0  0  0 0 0)
     EXX-fraction              =        1.00
EXX: grid of k+q points same as grid of k-points
 callexx 2: dft_is_hybrid =  T F
     + Fock energy             =      -0.68034717 Ry =       -0.68034717 Ry 

 callexx 3: dft_is_hybrid =  T T
 callexx 4: dft_is_hybrid =  T F

     SCF steps #  7

     minimum_total energy      =      -1.92524882 Ry

     The total energy is the sum of the following terms:

     one-electron contribution =      -1.24490165 Ry
     xc contribution           =      -0.68034717 Ry
     exact exchange energy     =      -0.68034717 Ry
     rpa correlation energy    =       0.00000000 Ry
 normalization of error density:           1           1  8.089155256188051E-008
 convergency is approach after           1 steps
 normalization of error density:  8.089155256188051E-008
 gradient_of_energy           8  1.223491639253494E-005

     XC functional enforced to be EXXRPA
     Exchange-correlation      = SLA  PZ   NOGX NOGC ( 0  0  0  0 0 0)
     EXX-fraction              =        1.00
     !!! Any further DFT definition will be discarded
     !!! Please, verify this is what you really want !


   Info: using nr1, nr2, nr3 values from input

   Info: using nr1, nr2, nr3 values from input
     Message from routine kpoint_grid:
     ATTENTION: skip check of k-points equivalence
 
     Parallelization info
     --------------------
     sticks:   dense  smooth     PW     G-vecs:    dense   smooth      PW
     Min         627     627    155                23585    23585    2937
     Max         628     628    156                23586    23586    2940
     Sum        2509    2509    621                94341    94341   11753
 


     bravais-lattice index     =            1
     lattice parameter (alat)  =      15.0000  a.u.
     unit-cell volume          =    3375.0000 (a.u.)^3
     number of atoms/cell      =            1
     number of atomic types    =            1
     number of electrons       =         2.00
     number of Kohn-Sham states=            4
     kinetic-energy cutoff     =      35.0000  Ry
     charge density cutoff     =     140.0000  Ry
     cutoff for Fock operator  =     140.0000  Ry
     Exchange-correlation      = SLA  PZ   NOGX NOGC ( 0  0  0  0 0 0)
     EXX-fraction              =        1.00

     celldm(1)=  15.000000  celldm(2)=   0.000000  celldm(3)=   0.000000
     celldm(4)=   0.000000  celldm(5)=   0.000000  celldm(6)=   0.000000

     crystal axes: (cart. coord. in units of alat)
               a(1) = (   1.000000   0.000000   0.000000 )  
               a(2) = (   0.000000   1.000000   0.000000 )  
               a(3) = (   0.000000   0.000000   1.000000 )  

     reciprocal axes: (cart. coord. in units 2 pi/alat)
               b(1) = (  1.000000  0.000000  0.000000 )  
               b(2) = (  0.000000  1.000000  0.000000 )  
               b(3) = (  0.000000  0.000000  1.000000 )  


     PseudoPot. # 1 for Be read from file:
     ../pseudo/Be.EXX-fhi.UPF
     MD5 check sum: 17e503e2df6aa395e6988bd959d3fa42
     Pseudo is Norm-conserving, Zval =  2.0
     Generated by new atomic code, or converted to UPF format
     Using radial grid of  445 points,  2 beta functions with: 
                l(1) =   0
                l(2) =   1

     atomic species   valence    mass     pseudopotential
        Be             2.00     9.01218     Be( 1.00)

     No symmetry found



   Cartesian axes

     site n.     atom                  positions (alat units)
         1           Be  tau(   1) = (   0.0000000   0.0000000   0.0000000  )

     number of k points=     1
                       cart. coord. in units 2pi/alat
        k(    1) = (   0.0000000   0.0000000   0.0000000), wk =   2.0000000

     Dense  grid:    94341 G-vectors     FFT dimensions: (  60,  60,  60)

     Estimated max dynamical RAM per process >      30.76Mb

     Estimated total allocated dynamical RAM >     123.05Mb

     The potential is recalculated from file :
     /scratch/colonna/ACFDT/espresso-6.0/tempdir/Be-1.save/charge-density.dat

     Starting wfc from file

     Band Structure Calculation
     Davidson diagonalization with overlap

     ethr =  2.50E-13,  avg # of iterations =  6.0

     The total energy is the sum of the following terms:

     sum of ks eigenvalues     =      -0.82234173 Ry
     sum of local potentials   =      -0.31177168 Ry
     hartree contribution      =       0.64582099 Ry
     ewald contribution        =      -0.75661271 Ry
     lda (pbe) xc contribution =       0.00000000 Ry

     Etot with lda(pbe) xc     =      -1.24490513 Ry
     Etot with lda without xc  =      -1.24490513 Ry

     total cpu time spent up to now is        1.0 secs

     End of band structure calculation

          k = 0.0000 0.0000 0.0000 ( 11753 PWs)   bands (ev):

    -5.5943  -1.9934  -1.9933  -1.9933

     highest occupied, lowest unoccupied level (ev):    -5.5943   -1.9934

     Writing output data file Be-1.save
 oep convergency:   6.985735818319664E-006 F


ITER #  9 : LOOP OVER EXXRPA POT



     Calculation of q =    0.0000000   0.0000000   0.0000000
 callexx : dft_is_hybrid =  T F

     Only exx_fraction is set to 1.d0
     XC functional still not changed
     Exchange-correlation      = SLA  PZ   NOGX NOGC ( 0  0  0  0 0 0)
     EXX-fraction              =        1.00
EXX: grid of k+q points same as grid of k-points
 callexx 2: dft_is_hybrid =  T F
     + Fock energy             =      -0.68034370 Ry =       -0.68034370 Ry 

 callexx 3: dft_is_hybrid =  T T
 callexx 4: dft_is_hybrid =  T F

     SCF steps #  8

     minimum_total energy      =      -1.92524883 Ry

     The total energy is the sum of the following terms:

     one-electron contribution =      -1.24490513 Ry
     xc contribution           =      -0.68034370 Ry
     exact exchange energy     =      -0.68034370 Ry
     rpa correlation energy    =       0.00000000 Ry
 normalization of error density:           1           1  8.250186027809515E-008
 convergency is approach after           1 steps
 normalization of error density:  8.250186027809515E-008
 gradient_of_energy           9  7.013035501369048E-006

     XC functional enforced to be EXXRPA
     Exchange-correlation      = SLA  PZ   NOGX NOGC ( 0  0  0  0 0 0)
     EXX-fraction              =        1.00
     !!! Any further DFT definition will be discarded
     !!! Please, verify this is what you really want !


   Info: using nr1, nr2, nr3 values from input

   Info: using nr1, nr2, nr3 values from input
     Message from routine kpoint_grid:
     ATTENTION: skip check of k-points equivalence
 
     Parallelization info
     --------------------
     sticks:   dense  smooth     PW     G-vecs:    dense   smooth      PW
     Min         627     627    155                23585    23585    2937
     Max         628     628    156                23586    23586    2940
     Sum        2509    2509    621                94341    94341   11753
 


     bravais-lattice index     =            1
     lattice parameter (alat)  =      15.0000  a.u.
     unit-cell volume          =    3375.0000 (a.u.)^3
     number of atoms/cell      =            1
     number of atomic types    =            1
     number of electrons       =         2.00
     number of Kohn-Sham states=            4
     kinetic-energy cutoff     =      35.0000  Ry
     charge density cutoff     =     140.0000  Ry
     cutoff for Fock operator  =     140.0000  Ry
     Exchange-correlation      = SLA  PZ   NOGX NOGC ( 0  0  0  0 0 0)
     EXX-fraction              =        1.00

     celldm(1)=  15.000000  celldm(2)=   0.000000  celldm(3)=   0.000000
     celldm(4)=   0.000000  celldm(5)=   0.000000  celldm(6)=   0.000000

     crystal axes: (cart. coord. in units of alat)
               a(1) = (   1.000000   0.000000   0.000000 )  
               a(2) = (   0.000000   1.000000   0.000000 )  
               a(3) = (   0.000000   0.000000   1.000000 )  

     reciprocal axes: (cart. coord. in units 2 pi/alat)
               b(1) = (  1.000000  0.000000  0.000000 )  
               b(2) = (  0.000000  1.000000  0.000000 )  
               b(3) = (  0.000000  0.000000  1.000000 )  


     PseudoPot. # 1 for Be read from file:
     ../pseudo/Be.EXX-fhi.UPF
     MD5 check sum: 17e503e2df6aa395e6988bd959d3fa42
     Pseudo is Norm-conserving, Zval =  2.0
     Generated by new atomic code, or converted to UPF format
     Using radial grid of  445 points,  2 beta functions with: 
                l(1) =   0
                l(2) =   1

     atomic species   valence    mass     pseudopotential
        Be             2.00     9.01218     Be( 1.00)

     No symmetry found



   Cartesian axes

     site n.     atom                  positions (alat units)
         1           Be  tau(   1) = (   0.0000000   0.0000000   0.0000000  )

     number of k points=     1
                       cart. coord. in units 2pi/alat
        k(    1) = (   0.0000000   0.0000000   0.0000000), wk =   2.0000000

     Dense  grid:    94341 G-vectors     FFT dimensions: (  60,  60,  60)

     Estimated max dynamical RAM per process >      30.76Mb

     Estimated total allocated dynamical RAM >     123.05Mb

     The potential is recalculated from file :
     /scratch/colonna/ACFDT/espresso-6.0/tempdir/Be-1.save/charge-density.dat

     Starting wfc from file

     Band Structure Calculation
     Davidson diagonalization with overlap

     ethr =  2.50E-13,  avg # of iterations =  5.0

     The total energy is the sum of the following terms:

     sum of ks eigenvalues     =      -0.82241522 Ry
     sum of local potentials   =      -0.31169687 Ry
     hartree contribution      =       0.64581801 Ry
     ewald contribution        =      -0.75661271 Ry
     lda (pbe) xc contribution =       0.00000000 Ry

     Etot with lda(pbe) xc     =      -1.24490679 Ry
     Etot with lda without xc  =      -1.24490679 Ry

     total cpu time spent up to now is        1.1 secs

     End of band structure calculation

          k = 0.0000 0.0000 0.0000 ( 11753 PWs)   bands (ev):

    -5.5948  -1.9939  -1.9939  -1.9939

     highest occupied, lowest unoccupied level (ev):    -5.5948   -1.9939

     Writing output data file Be-1.save
 oep convergency:   3.264065049948151E-006 F


ITER # 10 : LOOP OVER EXXRPA POT



     Calculation of q =    0.0000000   0.0000000   0.0000000
 callexx : dft_is_hybrid =  T F

     Only exx_fraction is set to 1.d0
     XC functional still not changed
     Exchange-correlation      = SLA  PZ   NOGX NOGC ( 0  0  0  0 0 0)
     EXX-fraction              =        1.00
EXX: grid of k+q points same as grid of k-points
 callexx 2: dft_is_hybrid =  T F
     + Fock energy             =      -0.68034205 Ry =       -0.68034205 Ry 

 callexx 3: dft_is_hybrid =  T T
 callexx 4: dft_is_hybrid =  T F

     SCF steps #  9

     minimum_total energy      =      -1.92524883 Ry

     The total energy is the sum of the following terms:

     one-electron contribution =      -1.24490679 Ry
     xc contribution           =      -0.68034205 Ry
     exact exchange energy     =      -0.68034205 Ry
     rpa correlation energy    =       0.00000000 Ry
 normalization of error density:           1           1  8.315100627764170E-008
 convergency is approach after           1 steps
 normalization of error density:  8.315100627764170E-008
 gradient_of_energy          10  4.788817714540152E-006

     XC functional enforced to be EXXRPA
     Exchange-correlation      = SLA  PZ   NOGX NOGC ( 0  0  0  0 0 0)
     EXX-fraction              =        1.00
     !!! Any further DFT definition will be discarded
     !!! Please, verify this is what you really want !


   Info: using nr1, nr2, nr3 values from input

   Info: using nr1, nr2, nr3 values from input
     Message from routine kpoint_grid:
     ATTENTION: skip check of k-points equivalence
 
     Parallelization info
     --------------------
     sticks:   dense  smooth     PW     G-vecs:    dense   smooth      PW
     Min         627     627    155                23585    23585    2937
     Max         628     628    156                23586    23586    2940
     Sum        2509    2509    621                94341    94341   11753
 


     bravais-lattice index     =            1
     lattice parameter (alat)  =      15.0000  a.u.
     unit-cell volume          =    3375.0000 (a.u.)^3
     number of atoms/cell      =            1
     number of atomic types    =            1
     number of electrons       =         2.00
     number of Kohn-Sham states=            4
     kinetic-energy cutoff     =      35.0000  Ry
     charge density cutoff     =     140.0000  Ry
     cutoff for Fock operator  =     140.0000  Ry
     Exchange-correlation      = SLA  PZ   NOGX NOGC ( 0  0  0  0 0 0)
     EXX-fraction              =        1.00

     celldm(1)=  15.000000  celldm(2)=   0.000000  celldm(3)=   0.000000
     celldm(4)=   0.000000  celldm(5)=   0.000000  celldm(6)=   0.000000

     crystal axes: (cart. coord. in units of alat)
               a(1) = (   1.000000   0.000000   0.000000 )  
               a(2) = (   0.000000   1.000000   0.000000 )  
               a(3) = (   0.000000   0.000000   1.000000 )  

     reciprocal axes: (cart. coord. in units 2 pi/alat)
               b(1) = (  1.000000  0.000000  0.000000 )  
               b(2) = (  0.000000  1.000000  0.000000 )  
               b(3) = (  0.000000  0.000000  1.000000 )  


     PseudoPot. # 1 for Be read from file:
     ../pseudo/Be.EXX-fhi.UPF
     MD5 check sum: 17e503e2df6aa395e6988bd959d3fa42
     Pseudo is Norm-conserving, Zval =  2.0
     Generated by new atomic code, or converted to UPF format
     Using radial grid of  445 points,  2 beta functions with: 
                l(1) =   0
                l(2) =   1

     atomic species   valence    mass     pseudopotential
        Be             2.00     9.01218     Be( 1.00)

     No symmetry found



   Cartesian axes

     site n.     atom                  positions (alat units)
         1           Be  tau(   1) = (   0.0000000   0.0000000   0.0000000  )

     number of k points=     1
                       cart. coord. in units 2pi/alat
        k(    1) = (   0.0000000   0.0000000   0.0000000), wk =   2.0000000

     Dense  grid:    94341 G-vectors     FFT dimensions: (  60,  60,  60)

     Estimated max dynamical RAM per process >      30.76Mb

     Estimated total allocated dynamical RAM >     123.05Mb

     The potential is recalculated from file :
     /scratch/colonna/ACFDT/espresso-6.0/tempdir/Be-1.save/charge-density.dat

     Starting wfc from file

     Band Structure Calculation
     Davidson diagonalization with overlap

     ethr =  2.50E-13,  avg # of iterations =  4.0

     The total energy is the sum of the following terms:

     sum of ks eigenvalues     =      -0.82245345 Ry
     sum of local potentials   =      -0.31165802 Ry
     hartree contribution      =       0.64581662 Ry
     ewald contribution        =      -0.75661271 Ry
     lda (pbe) xc contribution =       0.00000000 Ry

     Etot with lda(pbe) xc     =      -1.24490755 Ry
     Etot with lda without xc  =      -1.24490755 Ry

     total cpu time spent up to now is        1.2 secs

     End of band structure calculation

          k = 0.0000 0.0000 0.0000 ( 11753 PWs)   bands (ev):

    -5.5950  -1.9942  -1.9942  -1.9942

     highest occupied, lowest unoccupied level (ev):    -5.5950   -1.9942

     Writing output data file Be-1.save
 oep convergency:   1.529929608797390E-006 F
 
     PHONON       :      9.98s CPU     10.38s WALL (       1 calls)
     INITIALIZATION: 
     phq_setup    :      0.03s CPU      0.04s WALL (      10 calls)
     phq_init     :      0.61s CPU      0.61s WALL (      10 calls)
 
     phq_init     :      0.61s CPU      0.61s WALL (      10 calls)
     init_vloc    :      0.02s CPU      0.02s WALL (      11 calls)
     init_us_1    :      0.02s CPU      0.03s WALL (      11 calls)
 
 
 
     solve_linter :      6.08s CPU      6.21s WALL (      98 calls)
 
     solve_linter :      6.08s CPU      6.21s WALL (      98 calls)
     ortho        :      0.00s CPU      0.00s WALL (      98 calls)
     cgsolve      :      5.35s CPU      5.46s WALL (      98 calls)
     incdrhoscf   :      0.20s CPU      0.21s WALL (      98 calls)
 
 
     cgsolve      :      5.35s CPU      5.46s WALL (      98 calls)
     ch_psi       :      5.20s CPU      5.35s WALL (    3411 calls)
 
     ch_psi       :      5.20s CPU      5.35s WALL (    3411 calls)
     last         :      0.11s CPU      0.14s WALL (    3411 calls)
 
     add_vuspsi   :      0.04s CPU      0.04s WALL (    3502 calls)
 
     incdrhoscf   :      0.20s CPU      0.21s WALL (      98 calls)
 
 
      General routines
     calbec       :      0.13s CPU      0.13s WALL (    6963 calls)
     fft          :      0.44s CPU      0.46s WALL (     425 calls)
     fftw         :      5.41s CPU      5.40s WALL (    7918 calls)
     davcio       :      0.00s CPU      0.01s WALL (      61 calls)
 
 
     PHONON       :      9.98s CPU     10.38s WALL (       2 calls)
 
   This run was terminated on:  20:33: 7   4Oct2016            

=------------------------------------------------------------------------------=
   JOB DONE.
=------------------------------------------------------------------------------=
