
     Program EXX v.5.0 (svn rev. 9145M) starts on  2Jul2012 at 17:50:36 

     This program is part of the open-source Quantum ESPRESSO suite
     for quantum simulation of materials; please cite
         "P. Giannozzi et al., J. Phys.:Condens. Matter 21 395502 (2009);
          URL http://www.quantum-espresso.org", 
     in publications or presentations arising from this work. More details at
     http://www.quantum-espresso.org/quote.php

     Parallel version (MPI), running on     2 processors
     R & G space division:  proc/pool =    2

     Ultrasoft (Vanderbilt) Pseudopotentials

   Info: using nr1, nr2, nr3 values from input

   Info: using nr1s, nr2s, nr3s values from input

     IMPORTANT: XC functional enforced from input :
     Exchange-correlation      = SLA  PZ   NOGX NOGC ( 1 1 0 0 0)
     EXX-fraction              =        0.00
     Any further DFT definition will be discarded
     Please, verify this is what you really want

               file Be.EXX-fhi.UPF: wavefunction(s)  3S renormalized
 
     Parallelization info
     --------------------
     sticks:   dense  smooth     PW     G-vecs:    dense   smooth      PW
     Min         357     357     87                 7179     7179     893
     Max         360     360     90                 7184     7184     898
     Sum         717     717    177                14363    14363    1791
     Tot         359     359     89
 

     Some info on exchange and correlation energy

       xc energy (= ex + ec)     =    -0.72378180 Ry
                      !ex        =    -0.58253187 Ry
                      !ec        =    -0.14124993 Ry

       short-range corr. energy  =     0.06163050 Ry

     Only exx_fraction is set to 1.d0
     XC functional still not changed
     Exchange-correlation      = SLA  PZ   NOGX NOGC ( 1 1 0 0 0)
     EXX-fraction              =        1.00
 
 

       exact-exchange energy  =      -0.67899188 Ry 

 
     EXX          :     0.23s CPU         0.26s WALL

     EXX routines
     exx_grid     :      0.00s CPU      0.00s WALL (       1 calls)
     exxinit      :      0.02s CPU      0.02s WALL (       1 calls)
     exxen2       :      0.04s CPU      0.04s WALL (       2 calls)

     Parallel routines
     fft_scatter  :      0.02s CPU      0.01s WALL (      39 calls)
