
     Program PWSCF v.5.0 (svn rev. 9145M) starts on  2Jul2012 at 17:50:35 

     This program is part of the open-source Quantum ESPRESSO suite
     for quantum simulation of materials; please cite
         "P. Giannozzi et al., J. Phys.:Condens. Matter 21 395502 (2009);
          URL http://www.quantum-espresso.org", 
     in publications or presentations arising from this work. More details at
     http://www.quantum-espresso.org/quote.php

     Parallel version (MPI), running on     2 processors
     R & G space division:  proc/pool =    2

     Current dimensions of program PWSCF are:
     Max number of different atomic species (ntypx) = 10
     Max number of k-points (npk) =  40000
     Max angular momentum in pseudopotentials (lmaxx) =  3
     Waiting for input...
     Reading input from standard input
               file Be.EXX-fhi.UPF: wavefunction(s)  3S renormalized

     gamma-point specific algorithms are used

     Subspace diagonalization in iterative solution of the eigenvalue problem:
     a serial algorithm will be used

 
     Parallelization info
     --------------------
     sticks:   dense  smooth     PW     G-vecs:    dense   smooth      PW
     Min         357     357     87                 7179     7179     893
     Max         360     360     90                 7184     7184     898
     Sum         717     717    177                14363    14363    1791
     Tot         359     359     89
 


     bravais-lattice index     =            1
     lattice parameter (alat)  =      15.0000  a.u.
     unit-cell volume          =    3375.0000 (a.u.)^3
     number of atoms/cell      =            1
     number of atomic types    =            1
     number of electrons       =         2.00
     number of Kohn-Sham states=            8
     kinetic-energy cutoff     =      10.0000  Ry
     charge density cutoff     =      40.0000  Ry
     convergence threshold     =      5.0E-13
     mixing beta               =       0.7000
     number of iterations used =            8  plain     mixing
     Exchange-correlation      = SLA  PZ   NOGX NOGC ( 1 1 0 0 0)
     EXX-fraction              =        0.00

     celldm(1)=  15.000000  celldm(2)=   0.000000  celldm(3)=   0.000000
     celldm(4)=   0.000000  celldm(5)=   0.000000  celldm(6)=   0.000000

     crystal axes: (cart. coord. in units of alat)
               a(1) = (   1.000000   0.000000   0.000000 )  
               a(2) = (   0.000000   1.000000   0.000000 )  
               a(3) = (   0.000000   0.000000   1.000000 )  

     reciprocal axes: (cart. coord. in units 2 pi/alat)
               b(1) = (  1.000000  0.000000  0.000000 )  
               b(2) = (  0.000000  1.000000  0.000000 )  
               b(3) = (  0.000000  0.000000  1.000000 )  


     PseudoPot. # 1 for Be read from file:
     ../pseudo/Be.EXX-fhi.UPF
     MD5 check sum: 17e503e2df6aa395e6988bd959d3fa42
     Pseudo is Norm-conserving, Zval =  2.0
     Generated by new atomic code, or converted to UPF format
     Using radial grid of  445 points,  2 beta functions with: 
                l(1) =   0
                l(2) =   1

     atomic species   valence    mass     pseudopotential
        Be             2.00     9.01218     Be( 1.00)

     No symmetry found



   Cartesian axes

     site n.     atom                  positions (alat units)
         1           Be  tau(   1) = (   0.0000000   0.0000000   0.0000000  )

     number of k points=     1
                       cart. coord. in units 2pi/alat
        k(    1) = (   0.0000000   0.0000000   0.0000000), wk =   2.0000000

     Dense  grid:     7182 G-vectors     FFT dimensions: (  32,  32,  32)

     Largest allocated arrays     est. size (Mb)     dimensions
        Kohn-Sham Wavefunctions         0.05 Mb     (    447,    8)
        NL pseudopotentials             0.03 Mb     (    447,    4)
        Each V/rho on FFT grid          0.25 Mb     (  16384)
        Each G-vector array             0.03 Mb     (   3590)
        G-vector shells                 0.00 Mb     (    192)
     Largest temporary arrays     est. size (Mb)     dimensions
        Auxiliary wavefunctions         0.11 Mb     (    447,   32)
        Each subspace H/S matrix        0.01 Mb     (  32,  32)
        Each <psi_i|beta_j> matrix      0.00 Mb     (      4,    8)
        Arrays for rho mixing           2.00 Mb     (  16384,   8)

     Initial potential from superposition of free atoms

     starting charge    1.99987, renormalised to    2.00000

     negative rho (up, down):  0.356E-04 0.000E+00
     Starting wfc are    9 randomized atomic wfcs

     total cpu time spent up to now is        0.1 secs

     per-process dynamical memory:    13.0 Mb

     Self-consistent Calculation

     iteration #  1     ecut=    10.00 Ry     beta=0.70
     Davidson diagonalization with overlap
     ethr =  1.00E-02,  avg # of iterations = 13.0

     Threshold (ethr) on eigenvalues was too large:
     Diagonalizing with lowered threshold

     Davidson diagonalization with overlap
     ethr =  1.21E-05,  avg # of iterations =  7.0

     negative rho (up, down):  0.743E-06 0.000E+00

     total cpu time spent up to now is        0.1 secs

     total energy              =      -1.96541930 Ry
     Harris-Foulkes estimate   =      -1.96541525 Ry
     estimated scf accuracy    <       0.00023955 Ry

     iteration #  2     ecut=    10.00 Ry     beta=0.70
     Davidson diagonalization with overlap
     ethr =  1.20E-05,  avg # of iterations =  1.0

     negative rho (up, down):  0.201E-07 0.000E+00

     total cpu time spent up to now is        0.2 secs

     total energy              =      -1.96544352 Ry
     Harris-Foulkes estimate   =      -1.96543466 Ry
     estimated scf accuracy    <       0.00000485 Ry

     iteration #  3     ecut=    10.00 Ry     beta=0.70
     Davidson diagonalization with overlap
     ethr =  2.42E-07,  avg # of iterations =  3.0

     total cpu time spent up to now is        0.2 secs

     total energy              =      -1.96544501 Ry
     Harris-Foulkes estimate   =      -1.96544449 Ry
     estimated scf accuracy    <       0.00000018 Ry

     iteration #  4     ecut=    10.00 Ry     beta=0.70
     Davidson diagonalization with overlap
     ethr =  8.79E-09,  avg # of iterations =  1.0

     total cpu time spent up to now is        0.2 secs

     total energy              =      -1.96544502 Ry
     Harris-Foulkes estimate   =      -1.96544503 Ry
     estimated scf accuracy    <          7.4E-09 Ry

     iteration #  5     ecut=    10.00 Ry     beta=0.70
     Davidson diagonalization with overlap
     ethr =  3.71E-10,  avg # of iterations =  2.0

     total cpu time spent up to now is        0.2 secs

     total energy              =      -1.96544503 Ry
     Harris-Foulkes estimate   =      -1.96544502 Ry
     estimated scf accuracy    <          1.0E-10 Ry

     iteration #  6     ecut=    10.00 Ry     beta=0.70
     Davidson diagonalization with overlap
     ethr =  5.06E-12,  avg # of iterations =  1.0

     total cpu time spent up to now is        0.3 secs

     total energy              =      -1.96544503 Ry
     Harris-Foulkes estimate   =      -1.96544503 Ry
     estimated scf accuracy    <          8.3E-12 Ry

     iteration #  7     ecut=    10.00 Ry     beta=0.70
     Davidson diagonalization with overlap
     ethr =  4.17E-13,  avg # of iterations =  2.0

     total cpu time spent up to now is        0.3 secs

     End of self-consistent calculation

          k = 0.0000 0.0000 0.0000 (   896 PWs)   bands (ev):

    -5.3309  -1.5829  -1.5829  -1.5829  -0.2873   1.3142   1.3142   2.2451

     highest occupied, lowest unoccupied level (ev):    -5.3309   -1.5829

!    total energy              =      -1.96544503 Ry
     Harris-Foulkes estimate   =      -1.96544503 Ry
     estimated scf accuracy    <          2.8E-13 Ry

     The total energy is the sum of the following terms:

     one-electron contribution =      -1.12818288 Ry
     hartree contribution      =       0.64313235 Ry
     xc contribution           =      -0.72378180 Ry
     ewald contribution        =      -0.75661269 Ry

     convergence has been achieved in   7 iterations

     Writing output data file Be-1.save
 
     init_run     :      0.03s CPU      0.04s WALL (       1 calls)
     electrons    :      0.20s CPU      0.22s WALL (       1 calls)

     Called by init_run:
     wfcinit      :      0.00s CPU      0.01s WALL (       1 calls)
     potinit      :      0.01s CPU      0.01s WALL (       1 calls)

     Called by electrons:
     c_bands      :      0.10s CPU      0.11s WALL (       8 calls)
     sum_band     :      0.03s CPU      0.03s WALL (       8 calls)
     v_of_rho     :      0.02s CPU      0.02s WALL (       8 calls)
     mix_rho      :      0.02s CPU      0.01s WALL (       8 calls)

     Called by c_bands:
     init_us_2    :      0.00s CPU      0.00s WALL (      17 calls)
     regterg      :      0.10s CPU      0.11s WALL (       8 calls)

     Called by *egterg:
     h_psi        :      0.08s CPU      0.09s WALL (      39 calls)
     g_psi        :      0.00s CPU      0.00s WALL (      30 calls)
     rdiaghg      :      0.01s CPU      0.01s WALL (      37 calls)

     Called by h_psi:
     add_vuspsi   :      0.00s CPU      0.00s WALL (      39 calls)

     General routines
     calbec       :      0.00s CPU      0.00s WALL (      39 calls)
     fft          :      0.02s CPU      0.02s WALL (      33 calls)
     fftw         :      0.07s CPU      0.08s WALL (     234 calls)
     davcio       :      0.00s CPU      0.00s WALL (       7 calls)
 
     Parallel routines
     fft_scatter  :      0.06s CPU      0.05s WALL (     267 calls)
     EXX routines
 
     PWSCF        :     0.28s CPU         0.31s WALL

 
   This run was terminated on:  17:50:35   2Jul2012            

=------------------------------------------------------------------------------=
   JOB DONE.
=------------------------------------------------------------------------------=
