
     Program ACFDT v.6.0 (svn rev. 13079) starts on  4Oct2016 at 21:59:33 

     This program is part of the open-source Quantum ESPRESSO suite
     for quantum simulation of materials; please cite
         "P. Giannozzi et al., J. Phys.:Condens. Matter 21 395502 (2009);
          URL http://www.quantum-espresso.org", 
     in publications or presentations arising from this work. More details at
     http://www.quantum-espresso.org/quote

     Parallel version (MPI), running on     1 processors

     Ultrasoft (Vanderbilt) Pseudopotentials

     Reading data from directory:
     /scratch/colonna/ACFDT/espresso-6.0/tempdir/H2.save

   Info: using nr1, nr2, nr3 values from input

   Info: using nr1, nr2, nr3 values from input

     IMPORTANT: XC functional enforced from input :
     Exchange-correlation      = PBE ( 1  4  3  4 0 0)
     Any further DFT definition will be discarded
     Please, verify this is what you really want

               file H.pbe-mt_fhi.UPF: wavefunction(s)  2p 4f renormalized
 
     G-vector sticks info
     --------------------
     sticks:   dense  smooth     PW     G-vecs:    dense   smooth      PW
     Sum        2509    2509    621                94341    94341   11753
 

     Calculation of q =    0.0000000   0.0000000   0.0000000
     Calculation of Dielectric Eigenmodes: Davidson diagonalization

       lgamma = T,  lgamma_gamma = F

       ngm =  94341    nrxx = 216000

       nf_ec = 10   u0_ec =  30.00   neigv =   20
       thr_ec =  1.0E-08     tr2_ph =  1.0E-20

     HOMO-LUMO gap     c-PARAMETER
            0.73291674    -0.07612560

     List of frequency and weight
           30.00000000    76.47988834
            5.84152083     6.43457642
            2.45871689     1.70250467
            1.35708594     0.70489810
            0.84103724     0.37896815
            0.53864660     0.24308608
            0.33338318     0.17378082
            0.18361244     0.12757273
            0.07710766     0.08509418
            0.01499035     0.03823082



     RPA Ec calculation in ACFD theory



     Initialize the exx calculation

 callexx : dft_is_hybrid =  F F

     Only exx_fraction is set to 1.d0
     XC functional still not changed
     Exchange-correlation      = PBE ( 1  4  3  4 0 0)
     EXX-fraction              =        1.00
EXX: grid of k+q points same as grid of k-points
 callexx 2: dft_is_hybrid =  T F
     + Fock energy             =      -0.92696464 Ry =       -0.92696464 Ry 

 callexx 3: dft_is_hybrid =  T T
 callexx 4: dft_is_hybrid =  T F

     Exx local potential calculation START

 normalization of error density:           1           1  2.530127633192746E-003
 normalization of error density:           2           2  1.254108965407507E-004
 normalization of error density:           3           3  4.415309095276975E-005
 normalization of error density:           4           4  1.614051333980259E-005
 normalization of error density:           5           5  8.974207537758960E-006
 normalization of error density:           6           6  8.395171412715512E-006
 normalization of error density:           7           7  3.754502027616757E-006
 normalization of error density:           8           8  3.737709162760936E-006
 normalization of error density:           9           9  3.348634564974429E-006
 normalization of error density:          10          10  3.304510401761809E-006
 normalization of error density:          11          11  1.932739995602429E-006
 convergency is approach after          11 steps
 normalization of error density:  1.932739995602429E-006

     Exx local potential calculation END



       Calculating eigenvalues at frequency iu =    30.00000000

       Generate   20  random potentials

       Write   20  potentials to disk

       Converged eigenvalues in ascending order

%           -0.0077972     -0.0068636     -0.0066937     -0.0066937     -0.0056088     -0.0054486     -0.0054486     -0.0044533     -0.0044383     -0.0044383
%           -0.0040867     -0.0040867     -0.0034783     -0.0034783     -0.0033162     -0.0029476     -0.0028331     -0.0028329     -0.0028329     -0.0028257

       Freq:     30.00000000    iters:   6    cpu time up to now:     71.33 secs

       Calculating Exact-Exchange contribution at frequency iu =    30.00000000

       Res. matrix at Freq:     30.00000000   DONE    cpu time up to now:     93.04 secs


       Calculating eigenvalues at frequency iu =     5.84152083

       Read   20  potentials from disk

       Write   20  potentials to disk

       Converged eigenvalues in ascending order

%           -0.0815201     -0.0793606     -0.0694204     -0.0694204     -0.0462691     -0.0414617     -0.0414617     -0.0311861     -0.0311861     -0.0288446
%           -0.0227886     -0.0227886     -0.0211078     -0.0207799     -0.0187621     -0.0187621     -0.0184866     -0.0184866     -0.0148588     -0.0148586

       Freq:      5.84152083    iters:   3    cpu time up to now:    137.64 secs

       Calculating Exact-Exchange contribution at frequency iu =     5.84152083

       Res. matrix at Freq:      5.84152083   DONE    cpu time up to now:    164.54 secs


       Calculating eigenvalues at frequency iu =     2.45871689

       Read   20  potentials from disk

       Write   20  potentials to disk

       Converged eigenvalues in ascending order

%           -0.2468591     -0.1976780     -0.1739949     -0.1739949     -0.0891480     -0.0771169     -0.0771169     -0.0569038     -0.0569038     -0.0552990
%           -0.0392024     -0.0392024     -0.0379517     -0.0331917     -0.0313889     -0.0313889     -0.0276607     -0.0276607     -0.0242811     -0.0223929

       Freq:      2.45871689    iters:   2    cpu time up to now:    209.69 secs

       Calculating Exact-Exchange contribution at frequency iu =     2.45871689

       Res. matrix at Freq:      2.45871689   DONE    cpu time up to now:    240.88 secs


       Calculating eigenvalues at frequency iu =     1.35708594

       Read   20  potentials from disk

       Write   20  potentials to disk

       Converged eigenvalues in ascending order

%           -0.4583765     -0.3191638     -0.2763736     -0.2763736     -0.1155938     -0.0990255     -0.0990255     -0.0772170     -0.0725054     -0.0725054
%           -0.0523962     -0.0523962     -0.0497149     -0.0383963     -0.0363228     -0.0363228     -0.0316224     -0.0316224     -0.0302555     -0.0274920

       Freq:      1.35708594    iters:   1    cpu time up to now:    282.61 secs

       Calculating Exact-Exchange contribution at frequency iu =     1.35708594

       Res. matrix at Freq:      1.35708594   DONE    cpu time up to now:    316.82 secs


       Calculating eigenvalues at frequency iu =     0.84103724

       Read   20  potentials from disk

       Write   20  potentials to disk

       Converged eigenvalues in ascending order

%           -0.6616913     -0.4200068     -0.3555016     -0.3555016     -0.1297784     -0.1107989     -0.1107989     -0.0924324     -0.0808347     -0.0808347
%           -0.0611162     -0.0611162     -0.0572667     -0.0406072     -0.0383604     -0.0383604     -0.0335977     -0.0333064     -0.0333064     -0.0302571

       Freq:      0.84103724    iters:   1    cpu time up to now:    360.39 secs

       Calculating Exact-Exchange contribution at frequency iu =     0.84103724

       Res. matrix at Freq:      0.84103724   DONE    cpu time up to now:    396.73 secs


       Calculating eigenvalues at frequency iu =     0.53864660

       Read   20  potentials from disk

       Write   20  potentials to disk

       Converged eigenvalues in ascending order

%           -0.8248346     -0.4937641     -0.4094560     -0.4094560     -0.1372451     -0.1169916     -0.1169916     -0.1021240     -0.0851998     -0.0851998
%           -0.0664800     -0.0664800     -0.0619310     -0.0416278     -0.0392820     -0.0392820     -0.0354302     -0.0340715     -0.0340715     -0.0317399

       Freq:      0.53864660    iters:   1    cpu time up to now:    443.54 secs

       Calculating Exact-Exchange contribution at frequency iu =     0.53864660

       Res. matrix at Freq:      0.53864660   DONE    cpu time up to now:    482.50 secs


       Calculating eigenvalues at frequency iu =     0.33338318

       Read   20  potentials from disk

       Write   20  potentials to disk

       Converged eigenvalues in ascending order

%           -0.9369953     -0.5418524     -0.4426385     -0.4426385     -0.1411290     -0.1202057     -0.1202057     -0.1078357     -0.0874600     -0.0874600
%           -0.0695713     -0.0695713     -0.0646692     -0.0421221     -0.0397209     -0.0397209     -0.0364124     -0.0344355     -0.0344355     -0.0325223

       Freq:      0.33338318    iters:   1    cpu time up to now:    532.98 secs

       Calculating Exact-Exchange contribution at frequency iu =     0.33338318

       Res. matrix at Freq:      0.33338318   DONE    cpu time up to now:    574.50 secs


       Calculating eigenvalues at frequency iu =     0.18361244

       Read   20  potentials from disk

       Write   20  potentials to disk

       Converged eigenvalues in ascending order

%           -1.0001883     -0.5682435     -0.4601142     -0.4601142     -0.1429862     -0.1217395     -0.1217395     -0.1107698     -0.0885369     -0.0885369
%           -0.0711389     -0.0711389     -0.0660852     -0.0423499     -0.0399209     -0.0399209     -0.0368910     -0.0346010     -0.0346010     -0.0328997

       Freq:      0.18361244    iters:   1    cpu time up to now:    621.54 secs

       Calculating Exact-Exchange contribution at frequency iu =     0.18361244

       Res. matrix at Freq:      0.18361244   DONE    cpu time up to now:    665.21 secs


       Calculating eigenvalues at frequency iu =     0.07710766

       Read   20  potentials from disk

       Write   20  potentials to disk

       Converged eigenvalues in ascending order

%           -1.0258630     -0.5788499     -0.4669818     -0.4669818     -0.1436831     -0.1223144     -0.1223144     -0.1119090     -0.0889402     -0.0889402
%           -0.0717438     -0.0717438     -0.0666385     -0.0424341     -0.0399944     -0.0399944     -0.0370723     -0.0346617     -0.0346617     -0.0330420

       Freq:      0.07710766    iters:   1    cpu time up to now:    710.78 secs

       Calculating Exact-Exchange contribution at frequency iu =     0.07710766

       Res. matrix at Freq:      0.07710766   DONE    cpu time up to now:    756.49 secs


       Calculating eigenvalues at frequency iu =     0.01499035

       Read   20  potentials from disk

       Write   20  potentials to disk

       Converged eigenvalues in ascending order

%           -1.0313815     -0.5811211     -0.4684410     -0.4684410     -0.1438289     -0.1224346     -0.1224346     -0.1121501     -0.0890245     -0.0890245
%           -0.0718715     -0.0718715     -0.0667558     -0.0424516     -0.0400096     -0.0400096     -0.0371103     -0.0346743     -0.0346743     -0.0330717

       Freq:      0.01499035    iters:   0    cpu time up to now:    797.08 secs

       Calculating Exact-Exchange contribution at frequency iu =     0.01499035

       Res. matrix at Freq:      0.01499035   DONE    cpu time up to now:    844.22 secs


     End of RPA Ec calculation


     RPAx Eigenvalues

%           -0.0044418     -0.0042538     -0.0031094     -0.0030933     -0.0030933     -0.0025238     -0.0025238     -0.0022508     -0.0022508     -0.0020683
%           -0.0018987     -0.0018987     -0.0017649     -0.0016832     -0.0016832     -0.0015529     -0.0015291     -0.0014778     -0.0014777     -0.0007693


     RPAx Eigenvalues


       Freq:     30.00000000  Ec-RPA(iu):       -0.00022762  Ec-RPAx(iu):       -0.00011375  Ec-tRPAx(iu):       -0.00011397  Ec-tpRPAx(iu):       -0.00011397  Ec-ttRPAx(iu):       -0.00011355


     RPAx Eigenvalues

%           -0.0406567     -0.0396262     -0.0349573     -0.0349572     -0.0229484     -0.0211380     -0.0211380     -0.0154173     -0.0154173     -0.0141963
%           -0.0113788     -0.0113788     -0.0105081     -0.0098603     -0.0095462     -0.0095461     -0.0092608     -0.0092608     -0.0071459     -0.0071326


     RPAx Eigenvalues


       Freq:      5.84152083  Ec-RPA(iu):       -0.01667206  Ec-RPAx(iu):       -0.00850526  Ec-tRPAx(iu):       -0.00866787  Ec-tpRPAx(iu):       -0.00866025  Ec-ttRPAx(iu):       -0.00834208


     RPAx Eigenvalues

%           -0.1233396     -0.0989192     -0.0870190     -0.0870189     -0.0443006     -0.0388590     -0.0388533     -0.0282075     -0.0282075     -0.0269965
%           -0.0199067     -0.0199066     -0.0192267     -0.0163650     -0.0157992     -0.0157991     -0.0139220     -0.0139220     -0.0119898     -0.0111750


     RPAx Eigenvalues


       Freq:      2.45871689  Ec-RPA(iu):       -0.08968782  Ec-RPAx(iu):       -0.04725569  Ec-tRPAx(iu):       -0.04964912  Ec-tpRPAx(iu):       -0.04936760  Ec-ttRPAx(iu):       -0.04483806


     RPAx Eigenvalues

%           -0.2290869     -0.1596136     -0.1382244     -0.1382243     -0.0574338     -0.0499320     -0.0499315     -0.0384332     -0.0361046     -0.0361046
%           -0.0267966     -0.0267964     -0.0243835     -0.0190589     -0.0181848     -0.0181847     -0.0160281     -0.0160281     -0.0147607     -0.0140951


     RPAx Eigenvalues


       Freq:      1.35708594  Ec-RPA(iu):       -0.21883771  Ec-RPAx(iu):       -0.11959846  Ec-tRPAx(iu):       -0.12945491  Ec-tpRPAx(iu):       -0.12765709  Ec-ttRPAx(iu):       -0.10943726


     RPAx Eigenvalues

%           -0.3308535     -0.2095186     -0.1778157     -0.1778155     -0.0644387     -0.0558509     -0.0558505     -0.0459627     -0.0402405     -0.0402405
%           -0.0308548     -0.0308546     -0.0276047     -0.0201308     -0.0191457     -0.0191455     -0.0168870     -0.0168870     -0.0159049     -0.0157390


     RPAx Eigenvalues


       Freq:      0.84103724  Ec-RPA(iu):       -0.36477728  Ec-RPAx(iu):       -0.20535379  Ec-tRPAx(iu):       -0.22716014  Ec-tpRPAx(iu):       -0.22219893  Ec-ttRPAx(iu):       -0.18230812


     RPAx Eigenvalues

%           -0.4124148     -0.2462684     -0.2047041     -0.2047039     -0.0681279     -0.0589265     -0.0589258     -0.0505462     -0.0423700     -0.0423700
%           -0.0332315     -0.0332313     -0.0303038     -0.0206048     -0.0195743     -0.0195742     -0.0172662     -0.0172662     -0.0169017     -0.0164628


     RPAx Eigenvalues


       Freq:      0.53864660  Ec-RPA(iu):       -0.49207588  Ec-RPAx(iu):       -0.28299088  Ec-tRPAx(iu):       -0.31733602  Ec-tpRPAx(iu):       -0.30855868  Ec-ttRPAx(iu):       -0.24586138


     RPAx Eigenvalues

%           -0.4684418     -0.2708152     -0.2212274     -0.2212272     -0.0700853     -0.0605246     -0.0605237     -0.0532747     -0.0434793     -0.0434793
%           -0.0346785     -0.0346783     -0.0326414     -0.0208353     -0.0197841     -0.0197839     -0.0177150     -0.0174472     -0.0174472     -0.0167997


     RPAx Eigenvalues


       Freq:      0.33338318  Ec-RPA(iu):       -0.58356653  Ec-RPAx(iu):       -0.34033009  Ec-tRPAx(iu):       -0.38456932  Ec-tpRPAx(iu):       -0.37254618  Ec-ttRPAx(iu):       -0.29167691


     RPAx Eigenvalues

%           -0.5000116     -0.2846576     -0.2299462     -0.2299460     -0.0710476     -0.0612940     -0.0612932     -0.0547208     -0.0440160     -0.0440160
%           -0.0354698     -0.0354696     -0.0342318     -0.0209440     -0.0198833     -0.0198832     -0.0181756     -0.0175307     -0.0175307     -0.0169908


     RPAx Eigenvalues


       Freq:      0.18361244  Ec-RPA(iu):       -0.63632796  Ec-RPAx(iu):       -0.37398631  Ec-tRPAx(iu):       -0.42418648  Ec-tpRPAx(iu):       -0.41012930  Ec-ttRPAx(iu):       -0.31820613


     RPAx Eigenvalues

%           -0.5128422     -0.2903210     -0.2333790     -0.2333787     -0.0714161     -0.0615845     -0.0615837     -0.0552950     -0.0442193     -0.0442193
%           -0.0357900     -0.0357898     -0.0349458     -0.0209849     -0.0199206     -0.0199205     -0.0183617     -0.0175616     -0.0175616     -0.0170700


     RPAx Eigenvalues


       Freq:      0.07710766  Ec-RPA(iu):       -0.65799601  Ec-RPAx(iu):       -0.38793527  Ec-tRPAx(iu):       -0.44062788  Ec-tpRPAx(iu):       -0.42570469  Ec-ttRPAx(iu):       -0.32913208


     RPAx Eigenvalues

%           -0.5156005     -0.2915423     -0.2341089     -0.2341086     -0.0714938     -0.0616455     -0.0616446     -0.0554176     -0.0442620     -0.0442620
%           -0.0358588     -0.0358586     -0.0351047     -0.0209935     -0.0199284     -0.0199283     -0.0184015     -0.0175680     -0.0175680     -0.0170872


     RPAx Eigenvalues


       Freq:      0.01499035  Ec-RPA(iu):       -0.66266995  Ec-RPAx(iu):       -0.39095397  Ec-tRPAx(iu):       -0.44418727  Ec-tpRPAx(iu):       -0.42907506  Ec-ttRPAx(iu):       -0.33149155

     RPA Ec with different number of eigenvalues


       nevl =  20     RPA Ec:       -0.151740     RPAx Ec:       -0.084290(ryd.)     tRPAx Ec:       -0.092138(ryd.)     tpRPAx Ec:       -0.090301(ryd.)     ttRPAx Ec:       -0.075862(ryd.)

       nevl =  10     RPA Ec:       -0.145202     RPAx Ec:       -0.080989(ryd.)     tRPAx Ec:       -0.088801(ryd.)     tpRPAx Ec:       -0.086966(ryd.)     ttRPAx Ec:       -0.072597(ryd.)


     Final RPA-Ec:      -0.15174006 (no weight)      -0.15174006 (with weight) Ryd


     Final RPAx-Ec:      -0.08428993 (no weight)      -0.08428993 (with weight) Ryd


     Final tRPAx-Ec:      -0.09213783 (no weight)      -0.09213783 (with weight) Ryd


     Final tpRPAx-Ec:      -0.09030121 (no weight)      -0.09030121 (with weight) Ryd


     Final ttRPAx-Ec:      -0.07586247 (no weight)      -0.07586247 (with weight) Ryd
 
     PHONON       :    829.82s CPU    844.77s WALL (       1 calls)
     INITIALIZATION: 
     phq_setup    :      0.09s CPU      0.10s WALL (       1 calls)
     phq_init     :      0.18s CPU      0.19s WALL (       1 calls)
 
     phq_init     :      0.18s CPU      0.19s WALL (       1 calls)
     init_vloc    :      0.00s CPU      0.00s WALL (       1 calls)
     init_us_1    :      0.00s CPU      0.01s WALL (       1 calls)
 
 
 
     solve_linter :    556.26s CPU    561.46s WALL (    1067 calls)
 
     solve_linter :    556.26s CPU    561.46s WALL (    1067 calls)
     ortho        :      8.49s CPU      8.56s WALL (    2965 calls)
     cgsolve      :      5.53s CPU      5.55s WALL (      24 calls)
     incdrhoscf   :      7.26s CPU      7.73s WALL (    1067 calls)
 
 
     cgsolve      :      5.53s CPU      5.55s WALL (      24 calls)
     ch_psi       :    702.42s CPU    708.92s WALL (  115838 calls)
 
     ch_psi       :    702.42s CPU    708.92s WALL (  115838 calls)
     last         :     32.86s CPU     33.23s WALL (  115838 calls)
 
     add_vuspsi   :     21.96s CPU     21.94s WALL (  115838 calls)
 
     incdrhoscf   :      7.26s CPU      7.73s WALL (    1067 calls)
 
 
      General routines
     calbec       :     48.55s CPU     47.03s WALL (  231681 calls)
     fft          :     21.95s CPU     22.28s WALL (    7580 calls)
     ffts         :      5.85s CPU      6.07s WALL (    2000 calls)
     fftw         :    568.88s CPU    574.19s WALL (  242942 calls)
     davcio       :      0.03s CPU      0.17s WALL (     402 calls)
 
 
     PHONON       :    829.82s CPU    844.77s WALL (       2 calls)
 
   This run was terminated on:  22:13:38   4Oct2016            

=------------------------------------------------------------------------------=
   JOB DONE.
=------------------------------------------------------------------------------=
